{
	"title": "Amazon Product Search",
	"font_awesome_class": "fa-shopping-basket",
	"image_url": "http://fla.fg-a.com/shopping-cart/shopping-cart-black-3.png",
	"objects": [
		{
			"title": "Amazon Credentials",
			"slug": "amazon-credentials",
			"type": "amazon-credentials",
			"metafields": [
				{
					"key": "amz-key",
					"title": "Key",
					"type": "text",
					"value": ""
				},
				{
					"key": "amz-secret",
					"title": "Secret",
					"type": "text",
					"value": ""
				},
				{
					"key": "amz-tag",
					"title": "Tag",
					"type": "text",
					"value": ""
				}
			]
		}
	]
}
